Tables and DataFrames | DimensionalData
…
Converting to DataFrame ​
array defaultstack defaultlayersfrommergedims
Arrays will have columns for each dimension, and only one data column
julia
julia> DataFrame(A)

2600×4 DataFrame
  Row │ X      Y      category  data
      │ Int64  Int64  Char      Float64
──────┼───────────────────────────────────
    1 │     1      1  a         0.700019
    2 │     2      1  a         0.449777
    3 │     3      1  a         0.90942
    4 │     4      1  a         0.937503
    5 │     5      1  a         0.71602
    6 │     6      1  a         0.82062
    7 │     7      1  a         0.3257
    8 │     8      1  a         0.445832
  ⋮   │   ⋮      ⋮       ⋮          ⋮
 2594 │     4     10  z         0.862742
 2595 │     5     10  z         0.147747
 2596 │     6     10  z         0.629487
 2597 │     7     10  z         0.0945308
 2598 │     8     10  z         0.598047
 2599 │     9     10  z         0.879566
 2600 │    10     10  z         0.0324132
                         2585 rows omitted
…
