Tables and DataFrames | DimensionalData
…
Converting to DataFrame ​
array defaultstack defaultlayersfrommergedims
Arrays will have columns for each dimension, and only one data column
julia
julia> DataFrame(A)

2600×4 DataFrame
  Row │ X      Y      category  data
      │ Int64  Int64  Char      Float64
──────┼──────────────────────────────────
    1 │     1      1  a         0.459993
    2 │     2      1  a         0.161977
    3 │     3      1  a         0.742295
    4 │     4      1  a         0.825528
    5 │     5      1  a         0.725165
    6 │     6      1  a         0.748483
    7 │     7      1  a         0.284552
    8 │     8      1  a         0.583615
  ⋮   │   ⋮      ⋮       ⋮         ⋮
 2594 │     4     10  z         0.797672
 2595 │     5     10  z         0.428874
 2596 │     6     10  z         0.695181
 2597 │     7     10  z         0.209809
 2598 │     8     10  z         0.887672
 2599 │     9     10  z         0.545058
 2600 │    10     10  z         0.361429
                        2585 rows omitted
…
